CRITICAL - 2022-01-02 10:13:15 --> You do not have sufficient permissions to access that page.
#0 C:\Users\Mac Aer\Downloads\ciloksae\vendor\codeigniter4\framework\system\Filters\Filters.php(169): Myth\Auth\Filters\RoleFilter->before(Object(CodeIgniter\HTTP\IncomingRequest), Array)
#1 C:\Users\Mac Aer\Downloads\ciloksae\vendor\codeigniter4\framework\system\CodeIgniter.php(374): CodeIgniter\Filters\Filters->run('admin/data-prod...', 'before')
#2 C:\Users\Mac Aer\Downloads\ciloksae\vendor\codeigniter4\framework\system\CodeIgniter.php(317): CodeIgniter\CodeIgniter->handleRequest(NULL, Object(Config\Cache), false)
#3 C:\Users\Mac Aer\Downloads\ciloksae\public\index.php(37): CodeIgniter\CodeIgniter->run()
#4 C:\Users\Mac Aer\Downloads\ciloksae\vendor\codeigniter4\framework\system\Commands\Server\rewrite.php(43): require_once('C:\\Users\\Mac Ae...')
#5 {main}
